…
### Query Specific Fields

``` r
ShowFields(df)
# A tibble: 40 x 2
#    field                     acronym
#    <chr>                     <chr>  
#  1 PROTEIN                   PR     
#  2 RECOMMENDED_NAME          RN     
#  3 SYSTEMATIC_NAME           SN     
#  4 SYNONYMS                  SY     
#  5 REACTION                  RE     
#  6 REACTION_TYPE             RT     
#  7 SOURCE_TISSUE             ST     
#  8 LOCALIZATION              LO     
#  9 NATURAL_SUBSTRATE_PRODUCT NSP    
# 10 SUBSTRATE_PRODUCT         SP     
# … with 30 more rows

res <- QueryBrenda(df, EC = "1.1.1.1", fields = c("PROTEIN", "SUBSTRATE_PRODUCT"))
res$`1.1.1.1`$interactions$substrate.product
# A tibble: 772 x 7
#    proteinID substrate     product    commentarySubstrate        commentaryProdu… reversibility refID
#    <chr>     <chr>         <chr>      <chr>                      <chr>            <chr>         <chr>
#  1 10        n-propanol +… n-propana… NA                         NA               r             120  
#  2 10        2-propanol +… acetone +… NA                         NA               NA            122  
#  3 10        n-hexanol + … n-hexanal… NA                         NA               r             120  
#  4 10        (S)-2-butano… 2-butanon… NA                         NA               r             120  
#  5 10        ethylenglyco… ? + NADH   NA                         NA               r             120  
#  6 10        n-butanol + … butyralde… NA                         NA               NA            122  
#  7 10        n-decanol + … n-decanal… NA                         NA               r             120  
#  8 10        Tris + NAD+   ? + NADH   NA                         NA               r             120  
#  9 10        isopropanol … acetone +… NA                         NA               NA            139,…
# 10 10        5-hydroxymet… (furan-2,… #10# mutant enzyme S109P/… NA               NA            193,…
# … with 762 more rows
```
…
``` r
BiocycPathwayGenes(org.id = "HUMAN", pathway = "PWY66-400")
#> Found 25 genes in HUMAN pathway PWY66-400.
# # A tibble: 25 x 4
#    BiocycGene BiocycProtein   Symbol Ensembl        
#    <chr>      <chr>           <chr>  <chr>          
#  1 HS00894    HS00894-MONOMER PFKP   ENSG00000067057
#  2 HS07832    HS07832-MONOMER PFKM   ENSG00000152556
#  3 HS06881    HS06881-MONOMER PFKL   ENSG00000141959
#  4 HS06234    HS06234-MONOMER ALDOB  ENSG00000136872
#  5 HS07647    HS07647-MONOMER ALDOA  ENSG00000149925
#  6 HS03200    HS03200-MONOMER ALDOC  ENSG00000109107
#  7 HS03441    HS03441-MONOMER TPI1   ENSG00000111669
#  8 HS02793    HS02793-MONOMER GAPDHS ENSG00000105679
#  9 HS03433    HS03433-MONOMER GAPDH  ENSG00000111640
# 10 HS02359    HS02359-MONOMER PGK1   ENSG00000102144
# # … with 15 more rows
```
…
